Introduction to the covid19swiss Dataset • covid19swiss
…
The following examples demonstrate simple methods for query and summarise the data with the dplyr and tidyr packages.

Cases summary by canton

The first example demonstrates how to query the total confirmed, recovered, and death cases by canton as of April 8th:

library(dplyr)

covid19swiss %>%
  filter(date == as.Date("2020-04-08"),
         type %in% c("total_confirmed", "total_recovered", "total_death")) %>%
  select(canton, cases, type) %>%
  pivot_wider(names_from = type, values_from = cases) %>%
  arrange(-total_confirmed)
#> # A tibble: 26 x 4
#>    canton total_confirmed total_recovered total_death
#>    <chr>            <int>           <int>       <int>
#>  1 VD                4315              NA         185
#>  2 GE                4216             442         125
#>  3 ZH                2807              NA          57
#>  4 TI                2659             420         211
#>  5 VS                1484             130          68
#>  6 BE                1286              NA          37
#>  7 BS                 834             535          31
#>  8 AG                 788             220          16
#>  9 FR                 756              78          45
#> 10 BL                 694             461          21
#> # … with 16 more rows
…
